R Tutorial 007: forcats
…
Alternatively, you can use the add_count() function to add these directly to the original data.

data %>%
  add_count(marital, name = "MaritalCount")

## # A tibble: 21,483 x 10
##     year marital    age race  rincome  partyid  relig denom tvhours MaritalCount
##    <int> <fct>    <int> <fct> <fct>    <fct>    <fct> <fct>   <int>        <int>
##  1  2000 Never m~    26 White $8000 t~ Ind,nea~ Prot~ Sout~      12         5416
##  2  2000 Divorced    48 White $8000 t~ Not str~ Prot~ Bapt~      NA         3383
##  3  2000 Widowed     67 White Not app~ Indepen~ Prot~ No d~       2         1807
##  4  2000 Never m~    39 White Not app~ Ind,nea~ Orth~ Not ~       4         5416
##  5  2000 Divorced    25 White Not app~ Not str~ None  Not ~       1         3383
##  6  2000 Married     25 White $20000 ~ Strong ~ Prot~ Sout~      NA        10117
##  7  2000 Never m~    36 White $25000 ~ Not str~ Chri~ Not ~       3         5416
##  8  2000 Divorced    44 White $7000 t~ Ind,nea~ Prot~ Luth~      NA         3383
##  9  2000 Married     44 White $25000 ~ Not str~ Prot~ Other       0        10117
## 10  2000 Married     47 White $25000 ~ Strong ~ Prot~ Sout~       3        10117
## # ... with 21,473 more rows
…
